Name,age,phone_number,company,building_code,address
Enoch,54,493-166-2548,Oberbrunner-Oberbrunner,7023,Mireyamouth
Antonio,45,(918) 022-2365,Swift-Swift,4894,Quigleyborough
Josue,70,(876) 260-3588,Volkman-Volkman,378,Port Sabina
Rhiannon,56,1-223-278-8859,Kozey-Kozey,5355,New Roslyn
Damon,37,727-405-8328,Kuhlman Kuhlman and Kuhlman,253,South Louisa
Willie,73,1-903-070-1103,Hagenes-Hagenes,617,South Renee
Maria,35,1-912-307-4524,Brown-Brown,27138,Chaddville
Felicita,60,1-100-308-0128,Lang Inc,80923,Port Brisaberg
Lewis,49,670-621-5660,Christiansen Christiansen and Christiansen,1719,Kimberlyside
Maud,67,(783) 925-9124,Rau Rau and Rau,6305,Port Antonetteborough
Aletha,52,571.296.1842,Heathcote Inc,707,East Susannachester
Maribel,31,(518) 147-4333,Armstrong-Armstrong,29671,O'Connellstad
Damon,36,183-634-4404,Lehner-Lehner,8275,Hesselhaven
Berta,29,1-491-761-1694,Larson Larson and Larson,0594,New Alyciahaven
Demarcus,58,1-637-380-0561,Jenkins-Jenkins,787,North Alanis
Sabrina,30,1-880-727-2181,Cronin-Cronin,4040,Pourosfurt
Xander,74,1-656-045-4959,Wehner Wehner and Wehner,87491,Port Kane
Olga,69,(316) 818-6074,Von-Von,05726,East Savannahfurt
Dena,24,(350) 741-1760,Schneider Schneider and Schneider,3886,Legrosside
Javon,63,567-892-3175,Skiles Group,56461,Kiannaborough
Darion,45,465-759-2275,Lockman Lockman and Lockman,124,Jaysonland
Janae,48,(039) 863-9748,Bednar-Bednar,491,Konopelskishire
Freeman,73,(490) 683-4121,Rowe Group,7656,East Kelsi
Lea,51,(000) 137-9085,Funk Group,2445,East Lonnie
Gideon,38,1-928-121-9938,Mann-Mann,446,North Kaleb
Jared,61,546.075.0114,Weissnat Inc,2817,Haydenview
Mac,36,837.663.6878,Altenwerth and Sons,9116,Lubowitzberg
Gina,77,284-361-1637,Simonis Simonis and Simonis,731,Luettgenburgh
Shannon,26,1-644-908-6866,MacGyver MacGyver and MacGyver,67245,Nicolasbury
Era,39,686.678.7542,Glover Glover and Glover,332,West Gonzalomouth
Kenyatta,47,033-399-2057,Zulauf-Zulauf,19348,Lake Hattie
Alexis,70,373.219.4239,O'Reilly O'Reilly and O'Reilly,4558,New Nobleshire
Derek,30,612-033-6841,Casper and Sons,794,Botsfordburgh
Horacio,19,(186) 408-5603,DuBuque Group,59548,Lake Emery
Neil,61,848-007-0792,Schmeler Schmeler and Schmeler,97920,Langoshton
Drew,31,446.562.3600,Sawayn-Sawayn,8949,Bettyehaven
Nayeli,50,1-871-872-5958,Davis-Davis,592,Port Berylview
Parker,50,1-249-491-1640,Swaniawski Group,358,Raphaelberg
Graham,22,896-639-7651,Ward-Ward,242,Jennyferbury
Aubree,34,(598) 244-7554,D'Amore-D'Amore,39695,Padbergberg
Corene,28,989.721.7346,Stroman Inc,7793,East Lacy
Marge,35,1-132-847-8836,Dach Dach and Dach,979,East Fredaside
Morris,50,1-364-992-5266,Konopelski-Konopelski,0762,Rennerside
Ricky,55,536.883.4960,Schmeler-Schmeler,0139,East Harrymouth
Dawson,29,754-315-0872,Schuppe Schuppe and Schuppe,73667,New Randal
Koby,39,468.500.9149,Ebert Group,415,Hayesmouth
Kiarra,34,(560) 750-7947,Keebler Keebler and Keebler,4060,South Rolandohaven
Leilani,31,(812) 758-7017,Walsh Walsh and Walsh,091,Port Faustino
Christa,45,1-299-676-8891,Halvorson LLC,6466,South Cyril
Ken,33,291.220.5470,Greenholt and Sons,81346,Port Jacques
